*** Darwin 8x8 ***
Turn = 0.
  01234567
0 f.......
1 ........
2 ........
3 ...hh...
4 ...hh...
5 ........
6 ........
7 .......f

Turn = 1.
  01234567
0 f.......
1 ........
2 ...h....
3 .....h..
4 ..h.....
5 ....h...
6 ........
7 .......f

Turn = 2.
  01234567
0 f.......
1 ...h....
2 ........
3 ......h.
4 .h......
5 ........
6 ....h...
7 .......f

Turn = 3.
  01234567
0 f..h....
1 ........
2 ........
3 .......h
4 h.......
5 ........
6 ........
7 ....h..f

Turn = 4.
  01234567
0 f..h....
1 ........
2 ........
3 .......h
4 h.......
5 ........
6 ........
7 ....h..f

Turn = 5.
  01234567
0 f..h....
1 ........
2 ........
3 .......h
4 h.......
5 ........
6 ........
7 ....h..f

*** Darwin 7x9 ***
Turn = 0.
  012345678
0 t........
1 .........
2 .........
3 ..h......
4 .........
5 ....r....
6 ........t

Turn = 1.
  012345678
0 t........
1 .........
2 .........
3 ...h.....
4 ....r....
5 .........
6 ........t

Turn = 2.
  012345678
0 t........
1 .........
2 .........
3 ....r....
4 ....r....
5 .........
6 ........t

Turn = 3.
  012345678
0 t........
1 .........
2 .........
3 ....rr...
4 .........
5 .........
6 ........t

Turn = 4.
  012345678
0 t........
1 .........
2 ....r....
3 ......r..
4 .........
5 .........
6 ........t

Turn = 5.
  012345678
0 t........
1 ....r....
2 .........
3 .......r.
4 .........
5 .........
6 ........t

*** Darwin 5x10 ***
Turn = 0.
  0123456789
0 ...f......
1 f.........
2 .h...h..r.
3 ..r.......
4 ..t.r.....

Turn = 6.
  0123456789
0 ...f......
1 f.........
2 hh........
3 ........r.
4 rr...r....

Turn = 12.
  0123456789
0 ...f......
1 fr........
2 r.........
3 r..r......
4 r........r

Turn = 18.
  0123456789
0 rrr..r...r
1 ..........
2 ..........
3 ....r....r
4 .r........

Turn = 24.
  0123456789
0 ........rr
1 ..........
2 .........r
3 .......r.r
4 r.r....r..

Turn = 30.
  0123456789
0 ........r.
1 .........r
2 ....r....r
3 ......rr.r
4 .....r....

Turn = 36.
  0123456789
0 ....r....r
1 .....r....
2 ...r.r....
3 r........r
4 .........r

*** Darwin 20x20 ***
Turn = 0.
  01234567890123456789
0 h...................
1 ....................
2 ....................
3 ....................
4 ....................
5 ....................
6 ....................
7 ...................f
8 ....................
9 ....................
0 ....................
1 ....................
2 ....................
3 ....................
4 ....................
5 ..............h.....
6 ....................
7 ....................
8 ....................
9 ....................

Turn = 2.
  01234567890123456789
0 ....................
1 ....................
2 h...................
3 ....................
4 ....................
5 ....................
6 ....................
7 ...................f
8 ....................
9 ....................
0 ....................
1 ....................
2 ....................
3 ....................
4 ....................
5 ............h.......
6 ....................
7 ....................
8 ....................
9 ....................

Turn = 4.
  01234567890123456789
0 ....................
1 ....................
2 ....................
3 ....................
4 h...................
5 ....................
6 ....................
7 ...................f
8 ....................
9 ....................
0 ....................
1 ....................
2 ....................
3 ....................
4 ....................
5 ..........h.........
6 ....................
7 ....................
8 ....................
9 ....................

Turn = 6.
  01234567890123456789
0 ....................
1 ....................
2 ....................
3 ....................
4 ....................
5 ....................
6 h...................
7 ...................f
8 ....................
9 ....................
0 ....................
1 ....................
2 ....................
3 ....................
4 ....................
5 ........h...........
6 ....................
7 ....................
8 ....................
9 ....................

Turn = 8.
  01234567890123456789
0 ....................
1 ....................
2 ....................
3 ....................
4 ....................
5 ....................
6 ....................
7 ...................f
8 h...................
9 ....................
0 ....................
1 ....................
2 ....................
3 ....................
4 ....................
5 ......h.............
6 ....................
7 ....................
8 ....................
9 ....................

Turn = 10.
  01234567890123456789
0 ....................
1 ....................
2 ....................
3 ....................
4 ....................
5 ....................
6 ....................
7 ...................f
8 ....................
9 ....................
0 h...................
1 ....................
2 ....................
3 ....................
4 ....................
5 ....h...............
6 ....................
7 ....................
8 ....................
9 ....................

*** Darwin 5x10 ***
Turn = 0.
  0123456789
0 ...f......
1 f.........
2 .h...h..r.
3 ..r.......
4 ..t.r.....

Turn = 1.
  0123456789
0 ...f......
1 f.........
2 h...h.....
3 ...r....r.
4 ..tr......

Turn = 2.
  0123456789
0 ...f......
1 f.........
2 h..h......
3 ....r.....
4 ..rr....r.

Turn = 3.
  0123456789
0 ...f......
1 f.........
2 h.h.......
3 .....r....
4 ..rr....r.

Turn = 4.
  0123456789
0 ...f......
1 f.........
2 hh........
3 ......r...
4 .r.r...r..

Turn = 5.
  0123456789
0 ...f......
1 f.........
2 hh........
3 .......r..
4 r.r...r...

Turn = 6.
  0123456789
0 ...f......
1 f.........
2 hh........
3 ........r.
4 rr...r....

Turn = 7.
  0123456789
0 ...f......
1 f.........
2 hh........
3 r........r
4 r...r.....

Turn = 8.
  0123456789
0 ...f......
1 f.........
2 rh........
3 r........r
4 r..r......

Turn = 9.
  0123456789
0 ...f......
1 f.........
2 rh........
3 r.........
4 r.r......r

Turn = 10.
  0123456789
0 ...f......
1 f.........
2 rh........
3 .r........
4 rr.......r

*** Darwin 4x5 ***
Turn = 0.
  01234
0 .t.r.
1 t....
2 r...t
3 h....

Turn = 10.
  01234
0 .t...
1 t....
2 t..tt
3 t....

Turn = 20.
  01234
0 .t...
1 t....
2 t..tt
3 t....

Turn = 30.
  01234
0 .t...
1 t....
2 t..tt
3 t....

*** Darwin 10x10 ***
Turn = 0.
  0123456789
0 ..........
1 ...t......
2 ..........
3 ......f...
4 .....t....
5 ..........
6 ..........
7 .....t....
8 ..........
9 h...f.....

Turn = 5.
  0123456789
0 ..........
1 ...t......
2 ..........
3 ......f...
4 .....t....
5 ..........
6 ..........
7 .....t....
8 ..........
9 h...f.....

Turn = 10.
  0123456789
0 ..........
1 ...t......
2 ..........
3 ......f...
4 .....t....
5 ..........
6 ..........
7 .....t....
8 ..........
9 h...f.....

Turn = 15.
  0123456789
0 ..........
1 ...t......
2 ..........
3 ......f...
4 .....t....
5 ..........
6 ..........
7 .....t....
8 ..........
9 h...f.....

Turn = 20.
  0123456789
0 ..........
1 ...t......
2 ..........
3 ......f...
4 .....t....
5 ..........
6 ..........
7 .....t....
8 ..........
9 h...f.....

Turn = 25.
  0123456789
0 ..........
1 ...t......
2 ..........
3 ......f...
4 .....t....
5 ..........
6 ..........
7 .....t....
8 ..........
9 h...f.....

Turn = 30.
  0123456789
0 ..........
1 ...t......
2 ..........
3 ......f...
4 .....t....
5 ..........
6 ..........
7 .....t....
8 ..........
9 h...f.....

Turn = 35.
  0123456789
0 ..........
1 ...t......
2 ..........
3 ......f...
4 .....t....
5 ..........
6 ..........
7 .....t....
8 ..........
9 h...f.....

Turn = 40.
  0123456789
0 ..........
1 ...t......
2 ..........
3 ......f...
4 .....t....
5 ..........
6 ..........
7 .....t....
8 ..........
9 h...f.....

*** Darwin 5x5 ***
Turn = 0.
  01234
0 tf.hh
1 .rh.t
2 th.th
3 r.hth
4 hrfff

Turn = 1.
  01234
0 trh.h
1 .t.ht
2 tt.th
3 rh.tt
4 rrrtt

Turn = 2.
  01234
0 trh.t
1 .t.ht
2 tt.th
3 rh.tr
4 rrrrr

Turn = 3.
  01234
0 tth.t
1 .t.ht
2 tt.tt
3 rh.tr
4 rrrrr

Turn = 4.
  01234
0 ttt.t
1 .t.tt
2 tt.tt
3 rh.tr
4 rrrrr

Turn = 5.
  01234
0 ttt.t
1 .t.tt
2 tt.tt
3 rt.tr
4 rrrrr

Turn = 6.
  01234
0 ttt.t
1 .t.tt
2 tt.tt
3 rt.tr
4 ttrrr

Turn = 7.
  01234
0 ttt.t
1 .t.tt
2 tt.tt
3 tt.tr
4 ttrrr

Turn = 8.
  01234
0 ttt.t
1 .t.tt
2 tt.tt
3 tt.tr
4 ttrrr

Turn = 9.
  01234
0 ttt.t
1 .t.tt
2 tt.tt
3 tt.tt
4 ttttt

Turn = 10.
  01234
0 ttt.t
1 .t.tt
2 tt.tt
3 tt.tt
4 ttttt

*** Darwin 3x10 ***
Turn = 0.
  0123456789
0 .h........
1 ....h.h...
2 .t......t.

Turn = 2.
  0123456789
0 ...h..h...
1 ..........
2 .t..h...t.

Turn = 4.
  0123456789
0 .....hh...
1 ..........
2 .t..h...t.

Turn = 6.
  0123456789
0 .....hh...
1 ..........
2 .t..h...t.

Turn = 8.
  0123456789
0 .....hh...
1 ..........
2 .t..h...t.

Turn = 10.
  0123456789
0 .....hh...
1 ..........
2 .t..h...t.

*** Darwin 15x7 ***
Turn = 0.
  0123456
0 ......t
1 .......
2 .......
3 .......
4 .....tt
5 ft.....
6 .h.....
7 ...t.f.
8 .......
9 .......
0 ....r.f
1 .......
2 h.r....
3 ..t....
4 .......

Turn = 3.
  0123456
0 ......t
1 .......
2 .......
3 .......
4 .....tt
5 tt.....
6 h......
7 ...t.f.
8 .......
9 .......
0 .....r.
1 .r....r
2 ..t....
3 ..t....
4 .......

Turn = 6.
  0123456
0 ......t
1 .......
2 .......
3 .......
4 .....tt
5 tt.....
6 t......
7 ...t.f.
8 .r.....
9 .......
0 .......
1 .......
2 ..t....
3 ..t..r.
4 ......r

Turn = 9.
  0123456
0 ......t
1 .......
2 .......
3 .......
4 .....tt
5 tt.....
6 tt.....
7 ...t.f.
8 .......
9 .......
0 .......
1 .......
2 ..t....
3 ..t....
4 ....r.r

Turn = 12.
  0123456
0 ......t
1 .......
2 .......
3 .......
4 .....tt
5 tt.....
6 tt.....
7 ...t.f.
8 .......
9 .......
0 .......
1 .......
2 ..t....
3 ..t....
4 .r...r.

Turn = 15.
  0123456
0 ......t
1 .......
2 .......
3 .......
4 .....tt
5 tt.....
6 tt.....
7 ...t.f.
8 .......
9 .......
0 .......
1 .......
2 ..t....
3 ..t....
4 r.r....

*** Darwin 14x1 ***
Turn = 0.
  0
0 .
1 h
2 t
3 .
4 .
5 .
6 .
7 .
8 .
9 .
0 .
1 .
2 .
3 .

Turn = 30.
  0
0 .
1 t
2 t
3 .
4 .
5 .
6 .
7 .
8 .
9 .
0 .
1 .
2 .
3 .

*** Darwin 10x10 ***
Turn = 0.
  0123456789
0 r..t......
1 ...r...f..
2 ...r......
3 ..........
4 ..........
5 ..........
6 ..........
7 ..........
8 ..........
9 ..........

Turn = 5.
  0123456789
0 ..........
1 r.r....f..
2 r..r......
3 ..........
4 ..........
5 ..........
6 ..........
7 ..........
8 ..........
9 ..........

Turn = 10.
  0123456789
0 rr........
1 .......f..
2 ..........
3 ..........
4 ..........
5 ..........
6 ..r.......
7 ...r......
8 ..........
9 ..........

Turn = 15.
  0123456789
0 ..r...r...
1 .......f..
2 ..........
3 ..........
4 ..........
5 ..........
6 ..........
7 ..........
8 ..........
9 ...r.r....

Turn = 20.
  0123456789
0 .......r.r
1 .......f..
2 ..........
3 ..........
4 ..........
5 ..........
6 ..........
7 ..........
8 ..........
9 ........rr

Turn = 25.
  0123456789
0 ........r.
1 .......f..
2 ..........
3 ........r.
4 .........r
5 ........r.
6 ..........
7 ..........
8 ..........
9 ..........

Turn = 30.
  0123456789
0 ...r.....r
1 .......f..
2 ..........
3 ..........
4 .....r....
5 ....r.....
6 ..........
7 ..........
8 ..........
9 ..........

Turn = 35.
  0123456789
0 r.........
1 .......f..
2 ..........
3 ..........
4 r........r
5 r.........
6 ..........
7 ..........
8 ..........
9 ..........

Turn = 40.
  0123456789
0 ..........
1 .......f..
2 r.........
3 ..r.......
4 ..........
5 ..........
6 ..........
7 ..........
8 ..........
9 r........r
